<?xml version="1.0" standalone="no"?>
<!DOCTYPE svg PUBLIC "-//W3C//DTD SVG 20010904//EN"
 "http://www.w3.org/TR/2001/REC-SVG-20010904/DTD/svg10.dtd">
<svg version="1.0" xmlns="http://www.w3.org/2000/svg"
 width="700.000000pt" height="700.000000pt" viewBox="0 0 700.000000 700.000000"
 preserveAspectRatio="xMidYMid meet">
<metadata>
Created by potrace 1.14, written by Peter Selinger 2001-2017
</metadata>
<g transform="translate(0.000000,700.000000) scale(0.100000,-0.100000)"
fill="#000000" stroke="none">
<path d="M5678 5565 c-2 -1 -36 -5 -76 -9 -189 -16 -383 -86 -505 -182 -149
-116 -248 -318 -273 -554 -13 -127 -7 -410 11 -501 3 -13 8 -37 10 -54 3 -16
15 -59 27 -95 75 -230 196 -395 473 -644 61 -54 117 -106 125 -115 9 -9 51
-47 95 -86 43 -38 88 -79 100 -90 11 -11 63 -59 115 -106 202 -185 256 -247
306 -354 43 -89 60 -173 63 -306 4 -179 -27 -291 -100 -360 -55 -52 -123 -73
-234 -74 -79 0 -97 3 -147 28 -58 29 -108 79 -144 147 -17 31 -19 64 -22 321
l-3 286 -354 0 c-315 0 -355 -2 -359 -16 -2 -9 -3 -171 -2 -361 3 -375 9 -426
69 -562 88 -199 268 -339 518 -402 135 -35 186 -39 439 -40 294 -2 440 22 606
98 277 128 456 390 492 719 8 81 8 362 0 457 -22 235 -104 435 -255 615 -78
93 -278 289 -427 418 -12 10 -55 49 -96 87 -41 38 -86 78 -100 90 -185 160
-333 310 -390 397 -65 98 -85 175 -85 328 0 189 33 266 140 320 54 28 66 30
164 30 118 0 178 -19 227 -72 63 -67 77 -134 80 -388 1 -110 2 -204 3 -210 1
-6 121 -10 339 -10 l337 1 0 314 c-1 356 -5 389 -76 537 -104 219 -309 343
-644 389 -46 6 -441 14 -447 9z"/>
<path d="M102 3500 l3 -2034 645 0 c355 0 678 4 717 7 301 28 523 151 643 358
43 72 95 216 104 289 4 25 9 68 13 95 8 66 8 769 -1 867 -24 278 -143 466
-361 572 l-57 29 63 30 c77 37 185 140 221 212 48 94 72 183 85 314 14 144 6
646 -12 741 -30 159 -85 272 -173 359 -74 72 -183 130 -298 157 -152 35 -197
37 -922 38 l-672 1 2 -2035z m1143 1476 c140 -20 209 -95 231 -251 9 -61 9
-495 0 -549 -26 -157 -83 -228 -207 -261 -36 -10 -110 -13 -252 -12 l-200 2
-1 537 c-1 530 -1 537 19 540 39 6 361 1 410 -6z m-8 -1649 c65 -10 131 -38
163 -70 41 -39 78 -118 90 -189 15 -93 11 -723 -5 -800 -27 -127 -94 -197
-211 -224 -43 -9 -448 -13 -454 -4 -4 6 -5 1217 -1 1280 1 13 29 15 194 13
106 0 207 -3 224 -6z"/>
<path d="M2737 5525 c-2 -5 -4 -921 -3 -2035 l1 -2024 845 -1 c465 0 854 1
866 3 21 4 21 6 20 335 l-1 331 -499 0 -499 1 0 1698 c0 933 -3 1697 -6 1698
-3 0 -167 2 -363 2 -231 1 -359 -2 -361 -8z"/>
</g>
</svg>
